Introduction to Research Methods
…
CEOs with a salary over 1 million in 2014

filter(us_comp, salary > 1000, year == 2014)

## # A tibble: 280 x 17
##     year gvkey  exec_fullname  coname   ceoann execid bonus
##    <dbl> <chr>  <chr>          <chr>    <chr>  <chr>  <dbl>
##  1  2014 001075 "Donald E. Br "PINNAC CEO    05835      0
##  2  2014 001078 "Miles D. Whi "ABBOTT CEO    14300      0
##  3  2014 001161 "Rory P. Read "ADVANC CEO    42390      0
##  4  2014 001300 "David M. Cot "HONEYW CEO    20931   5500
##  5  2014 001380 "John B. Hess "HESS C CEO    02132      0
##  6  2014 001440 "Nicholas K.  "AMERIC CEO    40778      0
##  7  2014 001447 "Kenneth I. C "AMERIC CEO    02157   4500
##  8  2014 001449 "Daniel P. Am "AFLAC  CEO    00013      0
##  9  2014 001487 "Robert Herma "AMERIC CEO    20972      0
## 10  2014 001598 "Frank S. Her "AMETEK CEO    04252    520
## # ... with 270 more rows, and 10 more variables: salary
## #   <dbl>, stock_awards_fv <dbl>, stock_unvest_val <dbl>,
## #   eip_unearn_num <dbl>, eip_unearn_val <dbl>,
## #   option_awards <dbl>, option_awards_blk_value <dbl>,
## #   option_awards_num <dbl>, tdc1 <dbl>, tdc2 <dbl>

Focus on some variables.

select(us_comp, year, coname, bonus, salary, total = tdc1)

## # A tibble: 2,973 x 5
##     year coname                          bonus salary total
##  * <dbl> <chr>                           <dbl>  <dbl> <dbl>
##  1  2011 "AMERICAN AIRLINES GROUP INC       0    614  5527
##  2  2012 "AMERICAN AIRLINES GROUP INC       0    618   656
##  3  2013 "AMERICAN AIRLINES GROUP INC       0    592 19093
##  4  2014 "AMERICAN AIRLINES GROUP INC       0    688 12302
##  5  2015 "AMERICAN AIRLINES GROUP INC       0    232 11419
##  6  2016 "AMERICAN AIRLINES GROUP INC       0      0 11141
##  7  2011 "PINNACLE WEST CAPITAL CORP        0   1091  6698
##  8  2012 "PINNACLE WEST CAPITAL CORP        0   1146 10123
##  9  2013 "PINNACLE WEST CAPITAL CORP        0   1203  7124
## 10  2014 "PINNACLE WEST CAPITAL CORP        0   1240  7376
## # ... with 2,963 more rows

Create a new variable and combine it with

mutate(us_comp, coname_clean = trimws(coname),
       fullname_clean = trimws(exec_fullname)) %>%
  select(year, coname_clean, fullname_clean) 

## # A tibble: 2,973 x 3
##     year coname_clean                fullname_clean        
##    <dbl> <chr>                       <chr>                 
##  1  2011 AMERICAN AIRLINES GROUP INC Gerard J. Arpey       
##  2  2012 AMERICAN AIRLINES GROUP INC Thomas W. Horton      
##  3  2013 AMERICAN AIRLINES GROUP INC Thomas W. Horton      
##  4  2014 AMERICAN AIRLINES GROUP INC William Douglas Parker
##  5  2015 AMERICAN AIRLINES GROUP INC William Douglas Parker
##  6  2016 AMERICAN AIRLINES GROUP INC William Douglas Parker
##  7  2011 PINNACLE WEST CAPITAL CORP  Donald E. Brandt      
##  8  2012 PINNACLE WEST CAPITAL CORP  Donald E. Brandt      
##  9  2013 PINNACLE WEST CAPITAL CORP  Donald E. Brandt      
## 10  2014 PINNACLE WEST CAPITAL CORP  Donald E. Brandt      
## # ... with 2,963 more rows

Your first summary tables

group_by(us_comp, gvkey) %>%
  summarise(N = n(), N_CEO = n_distinct(execid), 
            average = mean(salary), sd = sd(salary),
            med = median(salary), minimum = min(salary), 
            maximum = max(salary)) %>%
  ungroup()

## # A tibble: 498 x 8
##    gvkey      N N_CEO average    sd   med minimum maximum
##    <chr>  <int> <int>   <dbl> <dbl> <dbl>   <dbl>   <dbl>
##  1 001045     6     3     457 276     603       0     688
##  2 001075     6     1    1212  83.3  1222    1091    1315
##  3 001078     6     1    1912  29.8  1900    1900    1973
##  4 001161     6     3     884 169     943     566    1000
##  5 001177     6     1    1024  60.5   998     977    1142
##  6 001209     6     2    1151 121    1200     905    1200
##  7 001230     6     2     439  28.3   431     410     488
##  8 001300     6     1    1841  45.7  1833    1800    1890
##  9 001327     6     1     719  73.4   713     635     823
## 10 001380     6     1    1500   0    1500    1500    1500
## # ... with 488 more rows
…
