Introduction to Research Methods
…
3.8 Experimenting with your model

data1 = create_fake_data(obs = 500, talent_rate = 2/3, C = .01) %>%
  mutate(talent_rate = "low talent", C = "low effect")
data2 = create_fake_data(obs = 500, talent_rate = 1, C = .01) %>%
  mutate(talent_rate = "high talent", C = "low effect")
data3 = create_fake_data(obs = 500, talent_rate = 2/3, C = .015) %>%
  mutate(talent_rate = "low talent", C = "high effect")
data4 = create_fake_data(obs = 500, talent_rate = 1, C = .015) %>%
  mutate(talent_rate = "high talent", C = "high effect")
data_exp = bind_rows(data1, data2, data3, data4)
data_exp

## # A tibble: 2,000 x 6
##        n  size talent   wage talent_rate C         
##    <int> <dbl>  <dbl>  <dbl> <chr>       <chr>     
##  1     1 600    -1.50 0.0241 low talent  low effect
##  2     2 300    -2.38 0.0197 low talent  low effect
##  3     3 200    -3.12 0.0172 low talent  low effect
##  4     4 150    -3.78 0.0156 low talent  low effect
##  5     5 120    -4.39 0.0143 low talent  low effect
##  6     6 100    -4.95 0.0134 low talent  low effect
##  7     7  85.7  -5.49 0.0126 low talent  low effect
##  8     8  75.0  -6.00 0.0120 low talent  low effect
##  9     9  66.7  -6.49 0.0114 low talent  low effect
## 10    10  60.0  -6.96 0.0110 low talent  low effect
## # ... with 1,990 more rows
…
Causal structure and control variables

Linearity after log-log transformation

Adapt the simulation with the fake_data() function for the same C and talent_rate values but with obs = 10000.

For each simulated dataset keep only the 500 largest firms.

You can use the variable n and the data manipulation functions we introduced last week

Plot the log(wage)-log(size) relation for the four different parameters spaces

What have you learned from this exercise?

## # A tibble: 2,000 x 6
##        n  size talent   wage talent_rate C         
##    <int> <dbl>  <dbl>  <dbl> <chr>       <chr>     
##  1     1 600    -1.50 0.0265 low talent  low effect
##  2     2 300    -2.38 0.0221 low talent  low effect
##  3     3 200    -3.12 0.0196 low talent  low effect
##  4     4 150    -3.78 0.0179 low talent  low effect
##  5     5 120    -4.39 0.0167 low talent  low effect
##  6     6 100    -4.95 0.0158 low talent  low effect
##  7     7  85.7  -5.49 0.0150 low talent  low effect
##  8     8  75.0  -6.00 0.0144 low talent  low effect
##  9     9  66.7  -6.49 0.0138 low talent  low effect
## 10    10  60.0  -6.96 0.0134 low talent  low effect
## # ... with 1,990 more rows
…
