Introduction to Research Methods
…
4.4 CEOs with a salary over 1 million in 2014

filter(us_comp, salary > 1000, year == 2014)

## # A tibble: 280 x 17
##     year gvkey  exec_fullname      coname       ceoann execid bonus salary
##    <dbl> <chr>  <chr>              <chr>        <chr>  <chr>  <dbl>  <dbl>
##  1  2014 001075 "Donald E. Brandt "PINNACLE W CEO    05835      0   1240
##  2  2014 001078 "Miles D. White   "ABBOTT LAB CEO    14300      0   1973
##  3  2014 001161 "Rory P. Read     "ADVANCED M CEO    42390      0   1000
##  4  2014 001300 "David M. Cote, J "HONEYWELL  CEO    20931   5500   1866
##  5  2014 001380 "John B. Hess     "HESS CORP  CEO    02132      0   1500
##  6  2014 001440 "Nicholas K. Akin "AMERICAN E CEO    40778      0   1241
##  7  2014 001447 "Kenneth I. Chena "AMERICAN E CEO    02157   4500   2000
##  8  2014 001449 "Daniel P. Amos   "AFLAC INC  CEO    00013      0   1441
##  9  2014 001487 "Robert Herman Be "AMERICAN I CEO    20972      0   1385
## 10  2014 001598 "Frank S. Hermanc "AMETEK INC CEO    04252    520   1182
## # ... with 270 more rows, and 9 more variables: stock_awards_fv <dbl>,
## #   stock_unvest_val <dbl>, eip_unearn_num <dbl>, eip_unearn_val <dbl>,
## #   option_awards <dbl>, option_awards_blk_value <dbl>, option_awards_num
## #   <dbl>, tdc1 <dbl>, tdc2 <dbl>

4.5 Focus on some variables.

select(us_comp, year, coname, bonus, salary, total = tdc1)

## # A tibble: 2,973 x 5
##     year coname                                         bonus salary total
##  * <dbl> <chr>                                          <dbl>  <dbl> <dbl>
##  1  2011 "AMERICAN AIRLINES GROUP INC                      0    614  5527
##  2  2012 "AMERICAN AIRLINES GROUP INC                      0    618   656
##  3  2013 "AMERICAN AIRLINES GROUP INC                      0    592 19093
##  4  2014 "AMERICAN AIRLINES GROUP INC                      0    688 12302
##  5  2015 "AMERICAN AIRLINES GROUP INC                      0    232 11419
##  6  2016 "AMERICAN AIRLINES GROUP INC                      0      0 11141
##  7  2011 "PINNACLE WEST CAPITAL CORP                       0   1091  6698
##  8  2012 "PINNACLE WEST CAPITAL CORP                       0   1146 10123
##  9  2013 "PINNACLE WEST CAPITAL CORP                       0   1203  7124
## 10  2014 "PINNACLE WEST CAPITAL CORP                       0   1240  7376
## # ... with 2,963 more rows
…
